<svg width="30" height="30" viewBox="0 0 30 30" fill="none" xmlns="http://www.w3.org/2000/svg">
<g clip-path="url(#clip0_4486_37055)">
<path d="M9.08369 20.8066L7.89435 20.8646L5.58845 27.4896C5.51498 27.7006 5.68595 27.9164 5.9082 27.8931L9.14041 27.5546C9.2307 27.5452 9.32046 27.5764 9.38539 27.6399L11.7089 29.9121C11.8686 30.0683 12.1367 30.0053 12.2101 29.7943L14.531 23.1261L13.8467 22.4619L9.08369 20.8066Z" fill="#F44336"/>
<path d="M14.531 23.1262L15 21.7789L8.36187 19.5215L7.89429 20.8649C9.77925 22.2099 12.0616 23.0332 14.531 23.1262Z" fill="#E20F00"/>
<path d="M20.9163 20.8066L22.1056 20.8646L24.4115 27.4896C24.485 27.7006 24.314 27.9164 24.0918 27.8931L20.8596 27.5546C20.7693 27.5452 20.6795 27.5764 20.6146 27.6399L18.2911 29.9121C18.1314 30.0683 17.8634 30.0053 17.79 29.7943L15.469 23.1261L16.1534 22.4619L20.9163 20.8066Z" fill="#F44336"/>
<path d="M15.469 23.1262L15 21.7789L21.6381 19.5215L22.1057 20.8649C20.2207 22.2099 17.9384 23.0332 15.469 23.1262Z" fill="#E20F00"/>
<path d="M14.8767 21.1005C3.98691 21.1005 3.99149 10.5227 4.00051 10.3409C4.28639 4.58168 9.04648 0 14.8767 0C20.7069 0 25.467 4.58168 25.7529 10.3409C25.7619 10.5227 25.7664 21.1005 14.8767 21.1005Z" fill="#D3833A"/>
<path d="M15 20.6827C9.1698 20.6827 4.40988 16.101 4.12394 10.3418C4.11492 10.5236 4.11023 10.7066 4.11023 10.8906C4.11023 16.9049 8.98576 21.7804 15 21.7804C21.0142 21.7804 25.8898 16.9049 25.8898 10.8906C25.8898 10.7065 25.8851 10.5236 25.876 10.3418C25.5901 16.101 20.8302 20.6827 15 20.6827Z" fill="#974E0D"/>
<path d="M14.5623 18.6303C6.00076 18.6303 5.98927 10.2114 6.00076 10.0299C6.28382 5.54773 10.0087 2 14.5623 2C19.1159 2 22.8408 5.54773 23.1238 10.0299C23.1353 10.2114 23.1238 18.6303 14.5623 18.6303Z" fill="#EF9D55"/>
<path d="M15.8687 10.73C16.5127 10.842 17.0214 11.0753 17.3947 11.43C17.7774 11.7753 17.9687 12.2467 17.9687 12.844C17.9687 13.292 17.8427 13.6933 17.5907 14.048C17.348 14.3933 16.984 14.6687 16.4987 14.874C16.0227 15.07 15.4487 15.168 14.7767 15.168C13.834 15.168 13.1247 14.986 12.6487 14.622C12.1727 14.2487 11.902 13.6607 11.8367 12.858L13.3487 12.676C13.386 13.264 13.526 13.7073 13.7687 14.006C14.0207 14.3047 14.3567 14.454 14.7767 14.454C15.7474 14.454 16.2327 13.9173 16.2327 12.844C16.2327 12.2093 16.0834 11.7707 15.7847 11.528C15.4954 11.2853 15.094 11.164 14.5807 11.164H13.6567V10.352H14.5807C15.15 10.352 15.5467 10.1933 15.7707 9.876C16.004 9.55867 16.1207 9.08733 16.1207 8.462C16.1207 7.46333 15.6914 6.964 14.8327 6.964C14.002 6.964 13.5587 7.608 13.5027 8.896L11.9907 8.7C12.0467 7.85067 12.3034 7.23 12.7607 6.838C13.218 6.446 13.9087 6.25 14.8327 6.25C15.8127 6.25 16.564 6.45533 17.0867 6.866C17.6094 7.26733 17.8707 7.79933 17.8707 8.462C17.8707 9.06867 17.684 9.56333 17.3107 9.946C16.9467 10.3287 16.466 10.59 15.8687 10.73Z" fill="white"/>
</g>
<defs>
<clipPath id="clip0_4486_37055">
<rect width="30" height="30" fill="white"/>
</clipPath>
</defs>
</svg>
