<svg width="31" height="30" viewBox="0 0 31 30" fill="none" xmlns="http://www.w3.org/2000/svg">
<path d="M28.2195 4.97164V10.207C28.2195 11.603 27.0876 12.7348 25.6914 12.7348H20.4553C19.059 12.7348 17.9271 11.603 17.9271 10.207V4.97164C17.9271 3.5756 19.059 2.44385 20.4553 2.44385H25.6914C27.0876 2.44379 28.2195 3.57554 28.2195 4.97164Z" fill="#F2C94C"/>
<path d="M10.7081 12.7348H5.47201C4.07576 12.7348 2.94385 11.603 2.94385 10.207V4.97166C2.94385 3.5756 4.07576 2.44385 5.47201 2.44385H10.7081C12.1043 2.44385 13.2363 3.5756 13.2363 4.97166V10.207C13.2363 11.603 12.1043 12.7348 10.7081 12.7348Z" fill="#EB7D2E"/>
<path d="M10.7081 27.716H5.47201C4.07576 27.716 2.94385 26.5842 2.94385 25.1882V19.9529C2.94385 18.5568 4.07576 17.425 5.47201 17.425H10.7081C12.1043 17.425 13.2363 18.5568 13.2363 19.9529V25.1882C13.2363 26.5842 12.1043 27.716 10.7081 27.716Z" fill="white"/>
<path d="M20.1498 13.5716H25.481C27.2561 13.5716 28.7 12.1278 28.7 10.353V8.97546C28.7 8.61986 28.4117 8.33172 28.0562 8.33172C27.7007 8.33172 27.4124 8.61986 27.4124 8.97546V10.353C27.4124 11.4179 26.546 12.2842 25.4809 12.2842H20.1498C19.0848 12.2842 18.2183 11.4179 18.2183 10.353V5.01888C18.2183 3.954 19.0847 3.08772 20.1498 3.08772H25.4809C26.546 3.08772 27.4124 3.95395 27.4124 5.01888V5.87277C27.4124 6.22837 27.7007 6.51651 28.0562 6.51651C28.4117 6.51651 28.7 6.22837 28.7 5.87277V5.01888C28.7 3.24405 27.2561 1.80029 25.481 1.80029H20.1498C18.3748 1.80029 16.9308 3.24405 16.9308 5.01888V10.353C16.9308 12.1278 18.3748 13.5716 20.1498 13.5716Z" fill="black"/>
<path d="M5.51911 13.5701H10.8528C12.6279 13.5701 14.0718 12.1263 14.0718 10.3515V5.01864C14.0718 3.2438 12.6279 1.80005 10.8528 1.80005H5.51911C3.74401 1.80005 2.30005 3.2438 2.30005 5.01864V10.3515C2.30005 12.1263 3.74401 13.5701 5.51911 13.5701ZM3.58766 5.01864C3.58766 3.95376 4.45402 3.08747 5.51911 3.08747H10.8528C11.9178 3.08747 12.7842 3.9537 12.7842 5.01864V10.3515C12.7842 11.4164 11.9179 12.2827 10.8528 12.2827H5.51911C4.45407 12.2827 3.58766 11.4165 3.58766 10.3515V5.01864Z" fill="black"/>
<path d="M5.51911 28.2H10.8528C12.6279 28.2 14.0718 26.7563 14.0718 24.9814V19.6488C14.0718 17.8739 12.6279 16.4302 10.8528 16.4302H5.51911C3.74401 16.4302 2.30005 17.8739 2.30005 19.6488V24.9814C2.30005 26.7563 3.74401 28.2 5.51911 28.2ZM3.58766 19.6488C3.58766 18.5839 4.45402 17.7176 5.51911 17.7176H10.8528C11.9178 17.7176 12.7842 18.5838 12.7842 19.6488V24.9814C12.7842 26.0463 11.9179 26.9126 10.8528 26.9126H5.51911C4.45407 26.9126 3.58766 26.0464 3.58766 24.9814V19.6488Z" fill="black"/>
<path d="M26.6603 21.6938H22.6401V17.6742C22.6401 17.3633 22.388 17.1113 22.0772 17.1113C21.7664 17.1113 21.5143 17.3632 21.5143 17.6742V21.6938H17.4937C17.183 21.6938 16.9308 21.9458 16.9308 22.2567C16.9308 22.5676 17.1829 22.8195 17.4937 22.8195H21.5143V26.8394C21.5143 27.1503 21.7664 27.4022 22.0772 27.4022C22.3879 27.4022 22.6401 27.1503 22.6401 26.8394V22.8195H26.6603C26.971 22.8195 27.2232 22.5675 27.2232 22.2566C27.2232 21.9457 26.971 21.6938 26.6603 21.6938Z" fill="#5981EA"/>
</svg>
