<svg width="31" height="30" viewBox="0 0 31 30" fill="none" xmlns="http://www.w3.org/2000/svg">
<path d="M27.882 13.1859L25.3841 12.829C25.1288 11.663 24.668 10.5517 24.0232 9.54707L25.5381 7.52703C25.6017 7.4423 25.6325 7.33749 25.625 7.23185C25.6175 7.12622 25.5721 7.02683 25.4972 6.95195L23.548 5.00275C23.4731 4.92786 23.3738 4.8825 23.2681 4.87498C23.1625 4.86746 23.0577 4.8983 22.9729 4.96183L20.9529 6.47675C19.9483 5.832 18.837 5.37118 17.6709 5.11583L17.3141 2.61795C17.2992 2.51306 17.2469 2.41709 17.1669 2.34765C17.0868 2.27822 16.9845 2.23999 16.8785 2.23999H14.1215C14.0155 2.23999 13.9131 2.27822 13.8331 2.34765C13.7531 2.41709 13.7008 2.51306 13.6859 2.61795L13.329 5.11583C12.163 5.37118 11.0517 5.832 10.0471 6.47675L8.02703 4.96183C7.9423 4.8983 7.83749 4.86746 7.73185 4.87498C7.62622 4.8825 7.52683 4.92786 7.45195 5.00275L5.50275 6.95195C5.42786 7.02683 5.3825 7.12622 5.37498 7.23185C5.36746 7.33749 5.3983 7.4423 5.46183 7.52703L6.97675 9.54707C6.332 10.5517 5.87118 11.663 5.61583 12.829L3.11795 13.1859C3.01306 13.2008 2.91709 13.2531 2.84765 13.3331C2.77822 13.4131 2.73999 13.5155 2.73999 13.6215V16.3785C2.73999 16.4845 2.77822 16.5868 2.84765 16.6669C2.91709 16.7469 3.01306 16.7992 3.11795 16.8141L5.61583 17.1709C5.87118 18.337 6.332 19.4483 6.97675 20.4529L5.46183 22.473C5.3983 22.5577 5.36746 22.6625 5.37498 22.7681C5.3825 22.8738 5.42786 22.9731 5.50275 23.048L7.45195 24.9972C7.52683 25.0721 7.62622 25.1175 7.73185 25.125C7.83749 25.1325 7.9423 25.1017 8.02703 25.0382L10.0471 23.5232C11.0517 24.168 12.163 24.6288 13.329 24.8842L13.6859 27.382C13.7008 27.4869 13.7531 27.5829 13.8331 27.6523C13.9131 27.7218 14.0155 27.76 14.1215 27.76H16.8785C16.9845 27.76 17.0868 27.7218 17.1669 27.6523C17.2469 27.5829 17.2992 27.4869 17.3141 27.382L17.6709 24.8842C18.837 24.6288 19.9483 24.168 20.9529 23.5232L22.9729 25.0382C23.0577 25.1017 23.1625 25.1325 23.2681 25.125C23.3738 25.1175 23.4731 25.0721 23.548 24.9972L25.4972 23.048C25.5721 22.9731 25.6175 22.8738 25.625 22.7681C25.6325 22.6625 25.6017 22.5577 25.5381 22.473L24.0232 20.4529C24.668 19.4483 25.1288 18.337 25.3841 17.1709L27.882 16.8141C27.9869 16.7992 28.0829 16.7469 28.1523 16.6669C28.2218 16.5868 28.26 16.4845 28.26 16.3785V13.6215C28.26 13.5155 28.2218 13.4131 28.1523 13.3331C28.0829 13.2531 27.9869 13.2008 27.882 13.1859Z" fill="#EB7D2E"/>
<path d="M27.882 13.1858L25.3841 12.8289C25.1288 11.6629 24.668 10.5516 24.0232 9.54698L25.5381 7.52694C25.6017 7.44221 25.6325 7.3374 25.625 7.23176C25.6175 7.12613 25.5721 7.02674 25.4972 6.95186L23.548 5.00266C23.4731 4.92777 23.3737 4.88241 23.2681 4.87489C23.1625 4.86737 23.0577 4.89821 22.9729 4.96174L22.5237 5.29834L24.1772 6.95186C24.2521 7.02674 24.2975 7.12613 24.305 7.23176C24.3125 7.3374 24.2817 7.44221 24.2181 7.52694L22.7032 9.54698C23.348 10.5516 23.8088 11.6629 24.0641 12.8289L26.562 13.1858C26.6669 13.2007 26.7629 13.253 26.8323 13.333C26.9017 13.413 26.94 13.5154 26.94 13.6214V16.3784C26.94 16.4844 26.9017 16.5868 26.8323 16.6668C26.7629 16.7468 26.6669 16.7991 26.562 16.814L24.0641 17.1709C23.8088 18.3369 23.348 19.4482 22.7032 20.4528L24.2181 22.4729C24.2817 22.5576 24.3125 22.6624 24.305 22.768C24.2975 22.8737 24.2521 22.9731 24.1772 23.0479L22.5237 24.7015L22.9729 25.0381C23.0577 25.1016 23.1625 25.1324 23.2681 25.1249C23.3737 25.1174 23.4731 25.072 23.548 24.9971L25.4972 23.0479C25.5721 22.9731 25.6175 22.8737 25.625 22.768C25.6325 22.6624 25.6017 22.5576 25.5381 22.4729L24.0232 20.4528C24.668 19.4482 25.1288 18.3369 25.3841 17.1709L27.882 16.814C27.9869 16.7991 28.0829 16.7468 28.1523 16.6668C28.2217 16.5868 28.26 16.4844 28.26 16.3784V13.6214C28.26 13.5154 28.2217 13.413 28.1523 13.333C28.0829 13.253 27.9869 13.2007 27.882 13.1858Z" fill="#FFA15E"/>
<path d="M15.5001 23.3599C20.1172 23.3599 23.8601 19.617 23.8601 14.9999C23.8601 10.3828 20.1172 6.63989 15.5001 6.63989C10.883 6.63989 7.14014 10.3828 7.14014 14.9999C7.14014 19.617 10.883 23.3599 15.5001 23.3599Z" fill="white"/>
<path d="M15.5001 6.63989C15.2774 6.63989 15.0601 6.65617 14.8401 6.67333C16.9358 6.83754 18.8926 7.78601 20.3198 9.32943C21.747 10.8729 22.5398 12.8977 22.5398 14.9999C22.5398 17.1021 21.747 19.1269 20.3198 20.6704C18.8926 22.2138 16.9358 23.1622 14.8401 23.3265C15.0601 23.3436 15.2774 23.3599 15.5001 23.3599C17.7173 23.3599 19.8437 22.4791 21.4115 20.9113C22.9793 19.3435 23.8601 17.2171 23.8601 14.9999C23.8601 12.7827 22.9793 10.6563 21.4115 9.08848C19.8437 7.52068 17.7173 6.63989 15.5001 6.63989Z" fill="#B8CADB"/>
<path d="M16.5233 10.4522V15.6353C16.5245 15.804 16.4653 15.9675 16.3563 16.0963L14.0767 18.8693C14.0085 18.9463 13.9232 19.0063 13.8276 19.0443C13.7321 19.0823 13.6289 19.0973 13.5264 19.0881C13.424 19.079 13.3251 19.0458 13.2379 18.9914C13.1506 18.937 13.0773 18.8629 13.0239 18.7749C12.9269 18.6155 12.885 18.4285 12.9046 18.2429C12.9243 18.0573 13.0045 17.8833 13.1328 17.7477L14.9842 15.5627C15.0413 15.4975 15.0723 15.4135 15.0713 15.3268V10.4522C15.0617 10.3511 15.0733 10.2491 15.1054 10.1527C15.1375 10.0563 15.1894 9.96775 15.2578 9.89261C15.3261 9.81747 15.4094 9.75743 15.5023 9.71635C15.5953 9.67527 15.6957 9.65405 15.7973 9.65405C15.8989 9.65405 15.9993 9.67527 16.0923 9.71635C16.1852 9.75743 16.2685 9.81747 16.3368 9.89261C16.4052 9.96775 16.4571 10.0563 16.4892 10.1527C16.5213 10.2491 16.5329 10.3511 16.5233 10.4522Z" fill="#F2C94C"/>
<path d="M15.2362 23.976C16.9592 23.976 18.6436 23.4651 20.0763 22.5078C21.509 21.5505 22.6256 20.1898 23.285 18.5979C23.9444 17.006 24.1169 15.2543 23.7808 13.5644C23.4446 11.8744 22.6149 10.3221 21.3965 9.10369C20.1781 7.8853 18.6258 7.05556 16.9358 6.7194C15.2458 6.38325 13.4941 6.55578 11.9022 7.21517C10.3103 7.87456 8.94969 8.9912 7.99241 10.4239C7.03512 11.8566 6.52417 13.5409 6.52417 15.264C6.52673 17.5738 7.44542 19.7882 9.07869 21.4215C10.7119 23.0547 12.9264 23.9734 15.2362 23.976ZM14.9135 7.20541V8.48801H15.5588V7.20541C17.5838 7.28895 19.5033 8.1308 20.9363 9.56386C22.3694 10.9969 23.2112 12.9164 23.2948 14.9413H22.0122V15.5867H23.2948C23.2112 17.6116 22.3694 19.5311 20.9363 20.9641C19.5033 22.3972 17.5838 23.2391 15.5588 23.3226V22.04H14.9135V23.3226C12.8886 23.2391 10.9691 22.3972 9.53602 20.9641C8.10297 19.5311 7.26111 17.6116 7.17757 15.5867H8.46017V14.9413H7.17757C7.26111 12.9164 8.10297 10.9969 9.53602 9.56386C10.9691 8.1308 12.8886 7.28895 14.9135 7.20541Z" fill="#2D3643"/>
<path d="M13.5101 19.4508C13.5355 19.453 13.5606 19.4537 13.586 19.4537C13.7321 19.4523 13.8762 19.4198 14.0088 19.3586C14.1414 19.2973 14.2594 19.2086 14.3552 19.0983L16.6378 16.3286C16.7984 16.1335 16.8862 15.8887 16.8861 15.636V10.4522C16.8955 10.3034 16.8743 10.1543 16.8238 10.014C16.7734 9.87371 16.6947 9.74526 16.5926 9.63656C16.4906 9.52786 16.3674 9.44123 16.2305 9.38201C16.0937 9.32279 15.9462 9.29224 15.7971 9.29224C15.648 9.29224 15.5004 9.32279 15.3636 9.38201C15.2268 9.44123 15.1035 9.52786 15.0015 9.63656C14.8994 9.74526 14.8207 9.87371 14.7703 10.014C14.7198 10.1543 14.6986 10.3034 14.708 10.4522V15.3282L12.8651 17.506C12.6809 17.6998 12.5666 17.9495 12.5403 18.2155C12.514 18.4816 12.5772 18.7488 12.7199 18.9749C12.8064 19.1095 12.9226 19.2223 13.0596 19.3048C13.1966 19.3873 13.3508 19.4373 13.5101 19.4508ZM13.411 17.9837L15.2624 15.7976C15.3734 15.6663 15.4343 15.4998 15.4341 15.3279V10.4522C15.4242 10.3989 15.4262 10.3442 15.4399 10.2917C15.4535 10.2393 15.4786 10.1906 15.5132 10.1489C15.5479 10.1073 15.5913 10.0738 15.6403 10.0508C15.6894 10.0278 15.7429 10.0159 15.7971 10.0159C15.8512 10.0159 15.9047 10.0278 15.9538 10.0508C16.0028 10.0738 16.0462 10.1073 16.0809 10.1489C16.1155 10.1906 16.1406 10.2393 16.1543 10.2917C16.1679 10.3442 16.1699 10.3989 16.1601 10.4522V15.636C16.1601 15.7203 16.1308 15.8019 16.0773 15.8669L13.8063 18.6236C13.7771 18.6586 13.7399 18.6862 13.698 18.7042C13.6561 18.7221 13.6105 18.73 13.5649 18.727C13.5158 18.7216 13.4686 18.7048 13.427 18.6781C13.3853 18.6515 13.3505 18.6155 13.325 18.5731C13.2726 18.4791 13.2526 18.3704 13.2681 18.2639C13.2835 18.1574 13.334 18.0589 13.411 17.9837Z" fill="#2D3643"/>
<path d="M27.9446 12.7508L25.7446 12.4362C25.493 11.4272 25.0926 10.4614 24.5566 9.57045L25.8911 7.79153C26.0176 7.62155 26.0788 7.41177 26.0637 7.20042C26.0485 6.98907 25.9579 6.7902 25.8084 6.64005L23.8601 4.69173C23.7099 4.54261 23.5112 4.45234 23.3002 4.43732C23.0891 4.4223 22.8796 4.48354 22.7099 4.60989L20.9296 5.94441C20.0387 5.40833 19.0729 5.00794 18.0639 4.75641L17.7493 2.55641C17.7189 2.34693 17.6142 2.15535 17.4544 2.01654C17.2946 1.87773 17.0902 1.8009 16.8786 1.80005H14.1215C13.91 1.80087 13.7058 1.87757 13.546 2.01621C13.3862 2.15484 13.2814 2.34621 13.2508 2.55553L12.9362 4.75553C11.9272 5.00706 10.9614 5.40745 10.0704 5.94353L8.29153 4.60989C8.12165 4.48326 7.91193 4.42187 7.70059 4.43689C7.48924 4.45191 7.29031 4.54235 7.14005 4.69173L5.19173 6.64005C5.04261 6.79019 4.95234 6.98886 4.93732 7.19994C4.9223 7.41101 4.98354 7.62047 5.10989 7.79021L6.44441 9.57045C5.90833 10.4614 5.50794 11.4272 5.25641 12.4362L3.05641 12.7508C2.84693 12.7812 2.65535 12.8859 2.51654 13.0457C2.37773 13.2055 2.3009 13.4099 2.30005 13.6215V16.3786C2.30087 16.5901 2.37757 16.7943 2.51621 16.9541C2.65484 17.1139 2.84621 17.2187 3.05553 17.2493L5.25553 17.5639C5.50706 18.5729 5.90745 19.5387 6.44353 20.4296L5.10989 22.2086C4.98326 22.3785 4.92187 22.5882 4.93689 22.7995C4.95191 23.0109 5.04235 23.2098 5.19173 23.3601L7.14005 25.3084C7.29019 25.4575 7.48886 25.5478 7.69994 25.5628C7.91101 25.5778 8.12047 25.5166 8.29021 25.3902L10.0696 24.0557C10.9605 24.5918 11.9264 24.9922 12.9353 25.2437L13.2499 27.4437C13.2804 27.6533 13.3852 27.845 13.5452 27.9838C13.7052 28.1227 13.9097 28.1994 14.1215 28.2001H16.8786C17.0901 28.1992 17.2943 28.1225 17.4541 27.9839C17.6139 27.8453 17.7187 27.6539 17.7493 27.4446L18.0639 25.2446C19.0729 24.993 20.0387 24.5926 20.9296 24.0566L22.7086 25.3911C22.8786 25.5176 23.0883 25.5788 23.2997 25.5637C23.511 25.5485 23.7099 25.4579 23.8601 25.3084L25.8084 23.3601C25.9575 23.2099 26.0478 23.0112 26.0628 22.8002C26.0778 22.5891 26.0166 22.3796 25.8902 22.2099L24.5557 20.4296C25.0918 19.5387 25.4922 18.5729 25.7437 17.5639L27.9437 17.2493C28.1532 17.2189 28.3447 17.1142 28.4836 16.9544C28.6224 16.7946 28.6992 16.5902 28.7001 16.3786V13.6215C28.6992 13.41 28.6225 13.2058 28.4839 13.046C28.3453 12.8862 28.1539 12.7814 27.9446 12.7508ZM27.8201 16.3786L25.3217 16.7354C25.233 16.7481 25.1503 16.7876 25.0846 16.8487C25.019 16.9097 24.9735 16.9893 24.9543 17.0768C24.7108 18.1923 24.27 19.2553 23.6528 20.2158C23.6045 20.2913 23.5804 20.3797 23.5837 20.4693C23.587 20.5588 23.6175 20.6453 23.6713 20.717L25.1862 22.737L23.237 24.6862L21.217 23.1713C21.1453 23.1175 21.0588 23.087 20.9693 23.0837C20.8797 23.0804 20.7913 23.1045 20.7158 23.1528C19.7553 23.77 18.6923 24.2108 17.5768 24.4543C17.4893 24.4735 17.4097 24.519 17.3487 24.5846C17.2876 24.6503 17.2481 24.733 17.2354 24.8217L16.8786 27.3201H14.1215L13.7647 24.8217C13.752 24.733 13.7125 24.6503 13.6514 24.5846C13.5904 24.519 13.5108 24.4735 13.4233 24.4543C12.3078 24.2108 11.2448 23.77 10.2843 23.1528C10.2088 23.1045 10.1204 23.0804 10.0308 23.0837C9.94126 23.087 9.85484 23.1175 9.78313 23.1713L7.76309 24.6862L5.81389 22.737L7.32881 20.717C7.38256 20.6453 7.41314 20.5588 7.41644 20.4693C7.41974 20.3797 7.39561 20.2913 7.34729 20.2158C6.73009 19.2553 6.28934 18.1923 6.04577 17.0768C6.0266 16.9893 5.98114 16.9097 5.91548 16.8487C5.84982 16.7876 5.7671 16.7481 5.67837 16.7354L3.18005 16.3786V13.6215L5.67837 13.2647C5.7671 13.252 5.84982 13.2125 5.91548 13.1514C5.98114 13.0904 6.0266 13.0108 6.04577 12.9233C6.28934 11.8078 6.73009 10.7448 7.34729 9.78429C7.39561 9.70881 7.41974 9.62038 7.41644 9.53082C7.41314 9.44126 7.38256 9.35484 7.32881 9.28313L5.81389 7.26309L7.76309 5.31389L9.78313 6.82881C9.85484 6.88256 9.94126 6.91314 10.0308 6.91644C10.1204 6.91974 10.2088 6.89561 10.2843 6.84729C11.2448 6.23009 12.3078 5.78934 13.4233 5.54577C13.5108 5.5266 13.5904 5.48114 13.6514 5.41548C13.7125 5.34982 13.752 5.2671 13.7647 5.17837L14.1215 2.68005H16.8786L17.2354 5.17837C17.2481 5.2671 17.2876 5.34982 17.3487 5.41548C17.4097 5.48114 17.4893 5.5266 17.5768 5.54577C18.6923 5.78934 19.7553 6.23009 20.7158 6.84729C20.7913 6.89561 20.8797 6.91974 20.9693 6.91644C21.0588 6.91314 21.1453 6.88256 21.217 6.82881L23.237 5.31389L25.1862 7.26309L23.6713 9.28313C23.6175 9.35484 23.587 9.44126 23.5837 9.53082C23.5804 9.62038 23.6045 9.70881 23.6528 9.78429C24.27 10.7448 24.7108 11.8078 24.9543 12.9233C24.9735 13.0108 25.019 13.0904 25.0846 13.1514C25.1503 13.2125 25.233 13.252 25.3217 13.2647L27.8201 13.6215V16.3786Z" fill="#2D3643"/>
</svg>
